Ontario Gas Units Running Days - 2012 - A Hugo website
…
##11$Date <- as.Date(G12$Date, format = "%Y-%m-%d") # Changing to Date format
Dz_12Total<-G12 %>% group_by(Date) %>% summarize(Total_2012_Gen=sum(`TOTAL`),n=n())
Dz_12Goreway<-G12 %>% group_by(Date) %>% summarize(Goreway_2012_Total=sum(`SITHE GOREWAY`),n=n())

Dz_12Halton<-G12 %>% group_by(Date) %>% summarize(Halton_2012_Total=sum(HALTONHILLS),n=n())
Dz_12Portland<-G12 %>% group_by(Date) %>% summarize(Portlands_2012_Total=sum(PORTLANDS),n=n())
Dz_12Greenfeild<-G12 %>% group_by(Date) %>% summarize(GEC_2012_Total=sum(`GREENFIELD ENERGY CENTRE`),n=n())
Dz_12Brighton<-G12 %>% group_by(Date) %>% summarize(Brigton_2012_Total=sum(`BRIGHTON BEACH`),n=n())
Dz_12GB<-cbind(Dz_12Total[,-3],Dz_12Goreway[,2],Dz_12Halton[,2],Dz_12Portland[,2],Dz_12Greenfeild[,2],Dz_12Brighton[,2])
Dz_12Goreway

## # A tibble: 366 x 3
##    Date       Goreway_2012_Total     n
##    <date>                  <dbl> <int>
##  1 2012-01-01                  0    24
##  2 2012-01-02               5645    24
##  3 2012-01-03              16596    24
##  4 2012-01-04              17918    24
##  5 2012-01-05               8894    24
##  6 2012-01-06               3618    24
##  7 2012-01-07                  0    24
##  8 2012-01-08                  0    24
##  9 2012-01-09               4112    24
## 10 2012-01-10               4057    24
## # ... with 356 more rows
…
