Ontario Gas Units Running Days - 2013 - Energy data analysis in rmardown
…
G13$Date <- as.Date(G13$Date, format = "%Y-%m-%d") # Changing to Date format
#colnames(G13)[colnames(G13)=="DATE"] <- "Date"

##11$Date <- as.Date(G12$Date, format = "%Y-%m-%d") # Changing to Date format
Dz_13Total<-G13 %>% group_by(Date) %>% summarize(Total_2013_Gen=sum(`TOTAL`),n=n())
Dz_13Goreway<-G13 %>% group_by(Date) %>% summarize(Goreway_2013_Total=sum(`SITHE GOREWAY`),n=n())

Dz_13Halton<-G13 %>% group_by(Date) %>% summarize(Halton_2013_Total=sum(HALTONHILLS),n=n())
Dz_13Portland<-G13 %>% group_by(Date) %>% summarize(Portlands_2013_Total=sum(PORTLANDS),n=n())
Dz_13Greenfeild<-G13 %>% group_by(Date) %>% summarize(GEC_2013_Total=sum(`GREENFIELD ENERGY CENTRE`),n=n())
Dz_13Brighton<-G13 %>% group_by(Date) %>% summarize(Brigton_2013_Total=sum(`BRIGHTON BEACH`),n=n())
Dz_13GB<-cbind(Dz_13Total[,-3],Dz_13Goreway[,2],Dz_13Halton[,2],Dz_13Portland[,2],Dz_13Greenfeild[,2],Dz_13Brighton[,2])
Dz_13Goreway

## # A tibble: 366 x 3
##    Date       Goreway_2013_Total     n
##    <date>                  <dbl> <int>
##  1 2013-01-01                  0    24
##  2 2013-01-02              11716    24
##  3 2013-01-03              14626    24
##  4 2013-01-04              10032    24
##  5 2013-01-05               4083    24
##  6 2013-01-06               4760    24
##  7 2013-01-07              14990    24
##  8 2013-01-08               9167    24
##  9 2013-01-09               3136    24
## 10 2013-01-10               3933    24
## # ... with 356 more rows
…
